<?xml version="1.0" encoding="UTF-8" standalone="no"?>
<svg
   xmlns:dc="http://purl.org/dc/elements/1.1/"
   xmlns:cc="http://creativecommons.org/ns#"
   xmlns:rdf="http://www.w3.org/1999/02/22-rdf-syntax-ns#"
   xmlns:svg="http://www.w3.org/2000/svg"
   xmlns="http://www.w3.org/2000/svg"
   xmlns:sodipodi="http://sodipodi.sourceforge.net/DTD/sodipodi-0.dtd"
   xmlns:inkscape="http://www.inkscape.org/namespaces/inkscape"
   version="1.1"
   x="0px"
   y="0px"
   viewBox="0 0 100 125"
   style="enable-background:new 0 0 100 100;"
   xml:space="preserve"
   id="svg36"
   sodipodi:docname="wiki.svg"
   inkscape:version="0.92.3 (2405546, 2018-03-11)"><metadata
     id="metadata42"><rdf:RDF><cc:Work
         rdf:about=""><dc:format>image/svg+xml</dc:format><dc:type
           rdf:resource="http://purl.org/dc/dcmitype/StillImage" /></cc:Work></rdf:RDF></metadata><defs
     id="defs40" /><sodipodi:namedview
     pagecolor="#ffffff"
     bordercolor="#666666"
     borderopacity="1"
     objecttolerance="10"
     gridtolerance="10"
     guidetolerance="10"
     inkscape:pageopacity="0"
     inkscape:pageshadow="2"
     inkscape:window-width="1382"
     inkscape:window-height="896"
     id="namedview38"
     showgrid="false"
     inkscape:zoom="1.888"
     inkscape:cx="50"
     inkscape:cy="62.5"
     inkscape:window-x="0"
     inkscape:window-y="0"
     inkscape:window-maximized="0"
     inkscape:current-layer="svg36" /><style
     type="text/css"
     id="style2">
	.st0{fill:none;stroke:#000000;stroke-width:2;stroke-linecap:round;stroke-linejoin:round;stroke-miterlimit:10;}
	.st1{fill:none;stroke:#000000;stroke-width:2.2;stroke-linecap:round;stroke-linejoin:round;stroke-miterlimit:10;}
</style><path
     d="M11.1,90h78c0.6,0,1-0.4,1-1s-0.4-1-1-1H80v-8.4c1.7-0.1,4.9-0.5,7.1-2.7c2.9-3,2.5-8,2.5-8.2c0-0.5-0.4-0.9-0.9-0.9  c-0.1,0-2.7-0.2-5.2,0.8c0.2-0.8,0.4-1.6,0.4-2.4c0-4.4-3.9-7.8-4.1-8c-0.4-0.3-0.9-0.3-1.3,0c-0.2,0.1-4.2,3.5-4.2,7.9  c0,1,0.2,1.9,0.5,2.8C72,67.8,69.2,68,69,68.1c-0.5,0-0.9,0.4-0.9,0.9c0,0.2-0.3,5.2,2.7,8.1c2.2,2.1,5.5,2.5,7.2,2.5V88H51.3V75.9  c2.1,0,6.8-0.5,9.8-3.6c3.9-4,3.3-10.7,3.3-11c0-0.5-0.4-0.9-0.9-0.9c-0.2,0-4.2-0.2-7.8,1.4c0.5-1.2,0.8-2.6,0.8-4  c0.1-5.8-5.2-10.4-5.4-10.6c-0.4-0.3-0.9-0.3-1.3,0c-0.2,0.2-5.6,4.7-5.6,10.5c0,1.6,0.4,3.1,1,4.5c-3.8-1.9-8.2-1.5-8.4-1.5  c-0.5,0-0.9,0.4-0.9,0.9c0,0.3-0.4,7,3.6,10.9c3,2.9,7.6,3.3,9.7,3.3c0.1,0,0.1,0,0.2,0V88H22.6v-8.4c1.7-0.1,4.9-0.5,7.1-2.7  c2.9-3,2.5-8,2.5-8.2c0-0.5-0.4-0.9-0.9-0.9c-0.1,0-2.7-0.2-5.2,0.8c0.2-0.8,0.4-1.6,0.4-2.4c0-4.4-3.9-7.8-4.1-8  c-0.4-0.3-0.9-0.3-1.3,0c-0.2,0.1-4.2,3.5-4.2,7.9c0,1,0.2,1.9,0.5,2.8c-2.7-1.1-5.5-0.9-5.7-0.8c-0.5,0-0.9,0.4-0.9,0.9  c0,0.2-0.3,5.2,2.7,8.1c2.2,2.1,5.5,2.5,7.2,2.5V88h-9.5c-0.6,0-1,0.4-1,1S10.6,90,11.1,90z M85.6,75.5c-1.6,1.7-4.3,2-5.7,2.1v-0.3  c0.1-1.4,0.4-3.8,1.9-5.4c1.6-1.7,4.3-2,5.7-2.1C87.5,71.2,87.3,73.8,85.6,75.5z M79.1,60.4c1,1.1,2.7,3.3,2.7,5.8  c0,2.5-1.8,4.7-2.8,5.8c-1-1.1-2.7-3.3-2.7-5.8S78,61.4,79.1,60.4z M72.2,75.7c-1.7-1.6-2-4.3-2.1-5.7c1.4,0,4,0.3,5.7,1.9  c1.7,1.6,2,4.3,2.1,5.7C76.6,77.6,73.9,77.3,72.2,75.7z M59.7,70.9c-2.5,2.5-6.6,2.9-8.4,3v-0.9c0.1-2,0.6-5.4,2.7-7.5  c2.5-2.6,6.6-3,8.4-3C62.5,64.2,62.2,68.3,59.7,70.9z M50.4,49.4c1.3,1.3,4.1,4.7,4.1,8.5c0,3.8-2.9,7.1-4.2,8.4  c-1.3-1.3-4.1-4.7-4.1-8.5C46.2,54,49.1,50.7,50.4,49.4z M40.8,71.1c-2.6-2.5-3-6.6-3-8.4c1.8,0,5.9,0.3,8.5,2.7  c2.6,2.5,3,6.6,3,8.4C47.5,73.9,43.4,73.6,40.8,71.1z M28.3,75.5c-1.6,1.7-4.3,2-5.7,2.1v-0.3c0.1-1.4,0.4-3.8,1.9-5.4  c1.6-1.7,4.3-2,5.7-2.1C30.2,71.2,29.9,73.8,28.3,75.5z M21.7,60.4c1,1.1,2.7,3.3,2.7,5.8c0,2.5-1.8,4.7-2.8,5.8  c-1-1.1-2.7-3.3-2.7-5.8C18.9,63.6,20.7,61.4,21.7,60.4z M14.8,75.7c-1.7-1.6-2-4.3-2.1-5.7c1.4,0,4,0.3,5.7,1.9  c1.7,1.6,2,4.3,2.1,5.7C19.2,77.6,16.5,77.3,14.8,75.7z"
     id="path4" /><path
     d="M42.9,26.2c0,4,3.3,7.3,7.3,7.3s7.3-3.3,7.3-7.3c0-4-3.3-7.3-7.3-7.3S42.9,22.2,42.9,26.2z M55.4,26.2  c0,2.9-2.4,5.3-5.3,5.3s-5.3-2.4-5.3-5.3c0-2.9,2.4-5.3,5.3-5.3S55.4,23.3,55.4,26.2z"
     id="path6" /><path
     d="M50.2,16.1c0.6,0,1-0.4,1-1v-3.9c0-0.6-0.4-1-1-1s-1,0.4-1,1v3.9C49.2,15.7,49.6,16.1,50.2,16.1z"
     id="path8" /><path
     d="M43.8,17.1c0.2,0.3,0.5,0.5,0.9,0.5c0.2,0,0.3,0,0.5-0.1c0.5-0.3,0.6-0.9,0.4-1.4l-1.9-3.4c-0.3-0.5-0.9-0.6-1.4-0.4  c-0.5,0.3-0.6,0.9-0.4,1.4L43.8,17.1z"
     id="path10" /><path
     d="M36.7,19.5l3.3,2c0.2,0.1,0.3,0.1,0.5,0.1c0.3,0,0.7-0.2,0.9-0.5c0.3-0.5,0.1-1.1-0.4-1.4l-3.3-2c-0.5-0.3-1.1-0.1-1.4,0.4  S36.3,19.2,36.7,19.5z"
     id="path12" /><path
     d="M35.1,27l3.9,0.1c0,0,0,0,0,0c0.5,0,1-0.4,1-1c0-0.6-0.4-1-1-1L35.2,25c-0.5,0-1,0.4-1,1C34.1,26.5,34.6,27,35.1,27z"
     id="path14" /><path
     d="M39.9,30.7l-3.4,1.9c-0.5,0.3-0.7,0.9-0.4,1.4c0.2,0.3,0.5,0.5,0.9,0.5c0.2,0,0.3,0,0.5-0.1l3.4-1.9  c0.5-0.3,0.7-0.9,0.4-1.4C41,30.6,40.4,30.5,39.9,30.7z"
     id="path16" /><path
     d="M41.8,39.9c0.2,0.1,0.3,0.1,0.5,0.1c0.3,0,0.7-0.2,0.9-0.5l2-3.3c0.3-0.5,0.1-1.1-0.3-1.4c-0.5-0.3-1.1-0.1-1.4,0.3l-2,3.3  C41.2,39,41.3,39.6,41.8,39.9z"
     id="path18" /><path
     d="M48.8,37.3l-0.1,3.9c0,0.6,0.4,1,1,1c0,0,0,0,0,0c0.5,0,1-0.4,1-1l0.1-3.9c0-0.6-0.4-1-1-1C49.3,36.3,48.8,36.8,48.8,37.3z"
     id="path20" /><path
     d="M54.9,35.2c-0.5,0.3-0.7,0.9-0.4,1.4l1.8,3.4c0.2,0.3,0.5,0.5,0.9,0.5c0.2,0,0.3,0,0.5-0.1c0.5-0.3,0.7-0.9,0.4-1.4  l-1.8-3.4C56,35.1,55.4,35,54.9,35.2z"
     id="path22" /><path
     d="M60.1,31.4c-0.5-0.3-1.1-0.2-1.4,0.3c-0.3,0.5-0.2,1.1,0.3,1.4l3.3,2.1c0.2,0.1,0.4,0.2,0.5,0.2c0.3,0,0.7-0.2,0.8-0.5  c0.3-0.5,0.2-1.1-0.3-1.4L60.1,31.4z"
     id="path24" /><path
     d="M60.3,26.8c0,0.6,0.4,1,0.9,1l3.9,0.2c0,0,0,0,0.1,0c0.5,0,1-0.4,1-1c0-0.6-0.4-1-0.9-1l-3.9-0.2  C60.8,25.8,60.3,26.2,60.3,26.8z"
     id="path26" /><path
     d="M59.2,21.7c0.2,0.3,0.5,0.5,0.9,0.5c0.2,0,0.3,0,0.5-0.1l3.5-1.7c0.5-0.2,0.7-0.9,0.4-1.3c-0.2-0.5-0.9-0.7-1.3-0.4  l-3.5,1.7C59.1,20.6,59,21.2,59.2,21.7z"
     id="path28" /><path
     d="M55.8,17.8c0.2,0.1,0.4,0.2,0.6,0.2c0.3,0,0.6-0.2,0.8-0.4l2.1-3.2c0.3-0.5,0.2-1.1-0.3-1.4c-0.5-0.3-1.1-0.2-1.4,0.3  l-2.1,3.2C55.2,16.9,55.3,17.5,55.8,17.8z"
     id="path30" /></svg>